%YAML 1.1
%TAG !u! tag:unity3d.com,2011:
--- !u!114 &11400000
MonoBehaviour:
  m_ObjectHideFlags: 0
  m_CorrespondingSourceObject: {fileID: 0}
  m_PrefabInstance: {fileID: 0}
  m_PrefabAsset: {fileID: 0}
  m_GameObject: {fileID: 0}
  m_Enabled: 1
  m_EditorHideFlags: 0
  m_Script: {fileID: 11500000, guid: 823a5caf0eeea85419238d0efe43f33f, type: 3}
  m_Name: Level4Fact
  m_EditorClassIdentifier: 
  factDescription: The man who wrote Dracula never visited Transylvania.
  factSprite: {fileID: 21300000, guid: 2116ecfc10033404a962d43ddbb0f5b0, type: 3}
