%YAML 1.1
%TAG !u! tag:unity3d.com,2011:
--- !u!114 &11400000
MonoBehaviour:
  m_ObjectHideFlags: 0
  m_CorrespondingSourceObject: {fileID: 0}
  m_PrefabInstance: {fileID: 0}
  m_PrefabAsset: {fileID: 0}
  m_GameObject: {fileID: 0}
  m_Enabled: 1
  m_EditorHideFlags: 0
  m_Script: {fileID: 11500000, guid: 823a5caf0eeea85419238d0efe43f33f, type: 3}
  m_Name: Level5Fact
  m_EditorClassIdentifier: 
  factDescription: You can sneeze faster than a cheetah can run.
  factSprite: {fileID: 21300000, guid: e8b4dbde698d705449499f37e6ee6dd4, type: 3}
